DIN,Name,Generic,Description,Unit,Dosage,DosageForm, Cost , Price ,Interactions,Quantity
94684,Avatocin,0,Allergies,Pill,100,mg,1.25,1.4,Alcohol,146
2213200,Clonazepam,0,Epiliepsy,Pill,4,mcg,1.1,1.2,,885
6452000,Warfarin Sodium,1,Bronchitis,Pill,4,mg,1.35,1.4,,25
9753100,Acebutolol hydrochloride,0,Arthritis,Pill,400,mg,1.1,1.1,,74
9785431,Dseurton,1,High blood pressure,Pill,175,mg,1.15,1.2,Sedatives,95
10513452,Ampicillin,1,Antibiotic,Pill,250,mg,1.4,1.45,Calcium,12
13876452,Levothyroxine,1,Thyroid disorders,Pill,25,mg,1.35,1.4,,8
15646543,Didanosine,1,Sinus infection,Pill,200,mg,1.11,1.12,,25
15799522,Tvalaxec,1,Antihistamine,Bottle,2,tsp,0.9,1,Alcohol,47
15799532,Rivastigmine tartrate,1,ADHD,Pill,4.4,mg,0.95,1.05,Sedatives,85
19876532,Dyotex,0,Tonsillitis,Bottle,2,tsp,0.95,1.05,,3
22468753,Oxaprozin,1,Anti-inflammatory,Pill,1200,mg,1.19,1.25,,0
23653320,Albuterol Sulfate,1,Asthma,Pill,2,mg,0.9,0.95,,68
29456789,Phalastat,0,Allergies,Bottle,1,tsp,1.55,1.6,,0
35921324,Haloperidol,0,Diuretic,Pill,6,mcg,1.25,1.3,,32
46135492,Epronix,0,Pain,Pill,500,mg,1.42,1.5,Grapefruit,0
54657999,Nvalax,1,Depression,Pill,200,mg,0.89,0.9,Grapefruit,35
54976530,Montelukast sodium,1,Acne,Pill,10,mcg,0.89,0.9,Alcohol,13
55784652,Hyometadol,0,Asthma,Bottle,2,tsp,1.25,1.35,,9
55976542,Syocil,1,Diabetes,Pill,120,mg,1.08,1.1,,4
57416597,Quentix,1,High blood pressure,Pill,50,mg,1.21,1.25,Alcohol,45
57953277,Rizatriptan Benzoate,0,Pain,Pill,6,mg,1.08,1.1,,0
64000154,Tiron,0,Beta blocker,Pill,150,mcg,1.27,1.3,,0
68956674,Diazapam,1,Anxiety,Pill,5,mg,1.05,1.12,,85
75465331,Almotriptan,1,Conjunctivitis,Pill,6.25,mg,0.86,0.87,,457
79846512,Glimepiride,1,Diabetes,Pill,2,mg,0.88,0.9,,3
81642351,Tolbutamide,0,Bacterial infections,Pill,2,mcg,0.88,0.9,,9
82956435,Myobuterol,1,Antibiotic,Bottle,1,tsp,1.55,1.6,Tranquilizers,0
97865310,Xeroflarol,1,Acid reflux,Bottle,1,tsp,1,1.05,,34
98715233,Cefixime,1,Antihistamine,Pill,400,mg,1.55,1.6,Sedatives,87
