EmpID,DateAsentee,Absent,Tardy
1,2020-08-20,1,0
2,2020-09-11,0,1
3,2020-06-06,1,0
4,2019-12-26,0,1
5,2019-12-25,1,0
6,2019-12-25,0,1
7,2019-12-01,1,0
8,2019-12-01,1,0
9,2019-11-28,0,1
10,2019-11-27,0,1
